{
    "paymentId":"GPB2112516613999",
    "requestId":"GVHBI00016615745",
    "linkReferenceId":"CGX21125016613881",
    "transactionDate":"2021-05-05T00:00:00Z",
    "nostroAccount":"EXTACHUSD8898587",
    "originalLocalInstrument":"PPD",
    "originalPaymentFunction":"Customer Credit Transfer",
    "deploymentId":"VolPay-A",
    "additionalAttributes":{
        "isBatchPosting":true,
        "serviceCode":"BULKPROCESSING",
        "paymentFunding":"CREDIT_FUNDED",
        "linkReferenceAmount":900
    },
    "movementRequests":[
        {
            "movementId":"GEHI000016614173",
            "valueDate":"2021-05-05T00:00:00Z",
            "bankSettlementDate":"2021-05-05T00:00:00Z",
            "fundAvailableDate":"2021-05-05T00:00:00Z",
            "instructionType":"WIRE_OUT_CLI_REV",
            "debitAccount":"EXTUSD8888888888",
            "creditAccount":"EXT7796392970",
            "amount":300,
            "currency":"USD"
        }
    ]
}